{
  "success": true,
  "message": "Thành công",
  "data": {
    "comments": [
      {
        "id": 72,
        "content": "Test reply",
        "content_id": 20,
        "content_type": "RECORD",
        "user": {
          "id": 2,
          "username": "tungnt1",
          "fullname": "Nguyen Thanh Tung",
          "avatar_url": "http://vkara.vn/storage/user/0/0/0/2/logo-1608678220.jpg"
        },
        "replies": null,
        "replies_count": 0,
        "likes_count": 0,
        "is_liked": false,
        "created_at": "2021-01-04T05:14:10.000000Z",
        "updated_at": "2021-01-04T05:14:10.000000Z"
      },
      {
        "id": 66,
        "content": "Ok",
        "content_id": 20,
        "content_type": "RECORD",
        "user": {
          "id": 2,
          "username": "tungnt1",
          "fullname": "Nguyen Thanh Tung",
          "avatar_url": "http://vkara.vn/storage/user/0/0/0/2/logo-1608678220.jpg"
        },
        "replies": null,
        "replies_count": 0,
        "likes_count": 0,
        "is_liked": false,
        "created_at": "2020-12-18T01:13:26.000000Z",
        "updated_at": "2020-12-18T01:13:26.000000Z"
      }
    ],
    "meta_data": {
      "current_page": 1,
      "from": 1,
      "last_page": 2,
      "next_page_url": "http://vkara.vn/api/comment/64/replies?page=2",
      "per_page": "2",
      "prev_page_url": null,
      "to": 2,
      "total": 3
    }
  }
}